<svg xmlns="http://www.w3.org/2000/svg" width="55" height="50" viewBox="0 0 55 50">
  <g id="Group_84" data-name="Group 84" transform="translate(-1383 -1219)">
    <g id="Group_83" data-name="Group 83" transform="translate(430 -20)">
      <path id="Path_141" data-name="Path 141" d="M53.968,97.564H1.782A1.373,1.373,0,0,1,.375,96.227V52.97h55V96.227A1.373,1.373,0,0,1,53.968,97.564Z" transform="translate(952.625 1191.436)" fill="#d8ecfe"/>
      <path id="Path_142" data-name="Path 142" d="M482.442,65.121v41.973c0,.763-1.127,1.38-2.514,1.38h-4.32c1.39,0,2.514-.618,2.514-1.38V65.121Z" transform="translate(525.558 1180.525)" fill="#c4e2ff"/>
      <path id="Path_143" data-name="Path 143" d="M55.375,11.079h-55V2.231C.375,1,1,0,1.782,0H53.968c.777,0,1.407,1,1.407,2.227v8.848Z" transform="translate(952.625 1238.996)" fill="#7ca1b1"/>
      <path id="Path_144" data-name="Path 144" d="M482.494,2.3v8.775h-4.319V2.3A2.416,2.416,0,0,0,475.659,0h4.317A2.418,2.418,0,0,1,482.494,2.3Z" transform="translate(525.506 1239)" fill="#678d98"/>
      <g id="Group_68" data-name="Group 68" transform="translate(959.078 1254.857)">
        <path id="Path_145" data-name="Path 145" d="M106.433,126.58H67.188a.958.958,0,0,1-.921-.991v-8.424a.958.958,0,0,1,.921-.991h39.244a.958.958,0,0,1,.921.991v8.424A.958.958,0,0,1,106.433,126.58Z" transform="translate(-66.267 -116.173)" fill="#0084d0"/>
      </g>
      <g id="Group_82" data-name="Group 82" transform="translate(112 29)">
        <rect id="Rectangle_3880" data-name="Rectangle 3880" width="25.758" height="1.931" transform="translate(847.31 1240.759)" fill="#a0c8eb"/>
        <rect id="Rectangle_3881" data-name="Rectangle 3881" width="20.514" height="1.931" transform="translate(847.31 1246.759)" fill="#a0c8eb"/>
        <rect id="Rectangle_3882" data-name="Rectangle 3882" width="30.254" height="1.931" transform="translate(847.31 1252.759)" fill="#a0c8eb"/>
      </g>
      <text id="Sign_My_Tax_Return" data-name="Sign My Tax Return" transform="translate(980 1262)" fill="#fff" font-size="6" font-family="BebasNeue, Bebas Neue"><tspan x="-18.873" y="0">Sign My Tax Return</tspan></text>
    </g>
    <path id="Path_157" data-name="Path 157" d="M278.882,259.8l-4.727,2.513,3.41,3.41-1.915,1.855-3.41-3.35-2.453,4.726-4.906-14Z" transform="translate(1154 993.143)" fill="#7ca1b1"/>
  </g>
</svg>
